id,employee_id,booking_id,be_start_time,be_end_time,deleted_at,created_at,updated_at
1,1,1,1/1/2000 17:30,1/1/2000 19:30,,3/24/2018 15:35,3/24/2018 15:35
2,3,2,1/1/2000 16:00,1/1/2000 19:00,,3/24/2018 15:35,3/24/2018 15:35
3,4,3,1/1/2000 14:00,1/1/2000 21:00,,3/24/2018 15:35,3/24/2018 15:35
4,1,4,1/1/2000 17:00,1/1/2000 23:00,,3/24/2018 15:35,3/24/2018 15:35
5,2,5,1/2/2000 0:00,1/2/2000 3:00,,3/24/2018 15:35,3/24/2018 15:35
6,1,6,1/1/2000 15:30,1/1/2000 18:00,,3/24/2018 15:35,3/24/2018 15:35
7,3,7,1/1/2000 19:00,1/1/2000 22:30,,3/24/2018 15:35,3/24/2018 15:35
8,5,8,1/2/2000 0:00,1/2/2000 2:30,,3/24/2018 15:35,3/24/2018 15:35
9,1,9,1/1/2000 18:00,1/1/2000 22:00,,3/24/2018 15:35,3/24/2018 15:35
10,2,10,1/1/2000 20:30,1/2/2000 1:30,,3/24/2018 15:35,3/24/2018 15:35
11,4,11,1/1/2000 10:00,1/1/2000 15:30,,3/24/2018 15:35,3/24/2018 15:35
12,3,12,1/1/2000 8:00,1/1/2000 12:00,,3/24/2018 15:35,3/24/2018 15:35
13,5,13,1/1/2000 14:00,1/1/2000 18:30,,3/24/2018 15:35,3/24/2018 15:35
14,1,14,1/1/2000 18:30,1/1/2000 22:00,,3/24/2018 15:35,3/24/2018 15:35
15,2,15,1/1/2000 18:00,1/1/2000 21:00,,3/24/2018 15:35,3/24/2018 15:35
16,1,16,1/1/2000 17:30,1/1/2000 22:00,,3/24/2018 15:35,3/24/2018 15:35
17,3,17,1/1/2000 19:00,1/1/2000 22:00,,3/24/2018 15:35,3/24/2018 15:35
18,1,18,1/1/2000 20:00,1/1/2000 22:30,,3/24/2018 15:35,3/24/2018 15:35
19,5,19,1/1/2000 13:30,1/1/2000 18:30,,3/24/2018 15:35,3/24/2018 15:35
20,1,20,1/1/2000 12:30,1/1/2000 14:30,,3/24/2018 15:35,3/24/2018 15:35
21,1,21,2000-1-1 11:30,2000-1-1 14:30,,3/24/2018 15:35,3/24/2018 15:35
22,3,22,2000-1-1 19:00,2000-1-1 21:00,,3/24/2018 15:35,3/24/2018 15:35
23,4,23,2000-1-1 10:00,2000-1-1 12:30,,3/24/2018 15:35,3/24/2018 15:35
24,1,24,2000-1-1 14:00,2000-1-1 18:00,,3/24/2018 15:35,3/24/2018 15:35
25,2,25,2000-1-1 19:30,2000-1-1 21:30,,3/24/2018 15:35,3/24/2018 15:35
26,1,26,2000-1-1 10:00,2000-1-1 13:00,,3/24/2018 15:35,3/24/2018 15:35
27,3,27,2000-1-1 18:30,2000-1-1 20:00,,3/24/2018 15:35,3/24/2018 15:35
28,5,28,2000-1-1 13:00,2000-1-1 16:00,,3/24/2018 15:35,3/24/2018 15:35
29,1,29,2000-1-1 11:00,2000-1-1 13:30,,3/24/2018 15:35,3/24/2018 15:35
30,2,30,2000-1-1 20:00,2000-1-1 22:00,,3/24/2018 15:35,3/24/2018 15:35
31,4,31,2000-1-1 12:00,2000-1-1 15:00,,3/24/2018 15:35,3/24/2018 15:35
32,3,32,2000-1-1 16:00,2000-1-1 18:30,,3/24/2018 15:35,3/24/2018 15:35
33,5,33,2000-1-1 10:00,2000-1-1 12:30,,3/24/2018 15:35,3/24/2018 15:35
34,1,34,2000-1-1 13:00,2000-1-1 16:00,,3/24/2018 15:35,3/24/2018 15:35
35,2,35,2000-1-1 19:00,2000-1-1 21:00,,3/24/2018 15:35,3/24/2018 15:35
36,1,36,2000-1-1 14:00,2000-1-1 18:00,,3/24/2018 15:35,3/24/2018 15:35
37,3,37,2000-1-1 15:00,2000-1-1 19:00,,3/24/2018 15:35,3/24/2018 15:35
38,1,38,2000-1-1 19:30,2000-1-1 21:30,,3/24/2018 15:35,3/24/2018 15:35
39,5,39,2000-1-1 10:00,2000-1-1 13:30,,3/24/2018 15:35,3/24/2018 15:35
40,1,40,2000-1-1 11:00,2000-1-1 14:00,,3/24/2018 15:35,3/24/2018 15:35
41,1,41,2000-1-1 12:00,2000-1-1 15:00,,3/24/2018 15:35,3/24/2018 15:35
42,3,42,2000-1-1 18:30,2000-1-1 20:30,,3/24/2018 15:35,3/24/2018 15:35
43,4,43,2000-1-1 15:00,2000-1-1 17:00,,3/24/2018 15:35,3/24/2018 15:35
44,1,44,2000-1-1 9:30,2000-1-1 13:30,,3/24/2018 15:35,3/24/2018 15:35
45,2,45,2000-1-1 10:30,2000-1-1 13:00,,3/24/2018 15:35,3/24/2018 15:35
46,1,46,2000-1-1 19:00,2000-1-1 20:00,,3/24/2018 15:35,3/24/2018 15:35
47,3,47,2000-1-1 19:30,2000-1-1 20:30,,3/24/2018 15:35,3/24/2018 15:35
48,5,48,2000-1-1 9:30,2000-1-1 10:30,,3/24/2018 15:35,3/24/2018 15:35
49,1,49,2000-1-1 11:00,2000-1-1 12:00,,3/24/2018 15:35,3/24/2018 15:35
50,2,50,2000-1-1 12:30,2000-1-1 13:30,,3/24/2018 15:35,3/24/2018 15:35
51,4,51,2000-1-1 14:00,2000-1-1 15:00,,3/24/2018 15:35,3/24/2018 15:35
52,3,52,2000-1-1 10:00,2000-1-1 11:00,,3/24/2018 15:35,3/24/2018 15:35
53,5,53,2000-1-1 20:00,2000-1-1 21:00,,3/24/2018 15:35,3/24/2018 15:35
54,1,54,2000-1-1 10:30,2000-1-1 12:00,,3/24/2018 15:35,3/24/2018 15:35
55,2,55,2000-1-1 10:00,2000-1-1 14:00,,3/24/2018 15:35,3/24/2018 15:35
56,1,56,2000-1-1 20:00,2000-1-1 22:00,,3/24/2018 15:35,3/24/2018 15:35