id,child_id,customer_id,deleted_at,created_at,updated_at
1,1,1,,2018-03-24 15:35:32,2018-03-24 15:35:32
2,2,4,,2018-03-24 15:35:32,2018-03-24 15:35:32
3,3,6,,2018-03-24 15:35:32,2018-03-24 15:35:32
4,4,8,,2018-03-24 15:35:32,2018-03-24 15:35:32
5,5,17,,2018-03-24 15:35:32,2018-03-24 15:35:32
6,6,14,,2018-03-24 15:35:32,2018-03-24 15:35:32
7,7,33,,2018-03-24 15:35:32,2018-03-24 15:35:32
8,8,35,,2018-03-24 15:35:32,2018-03-24 15:35:32
9,9,41,,2018-03-24 15:35:32,2018-03-24 15:35:32
10,10,27,,2018-03-24 15:35:32,2018-03-24 15:35:32
11,11,23,,2018-03-24 15:35:32,2018-03-24 15:35:32
12,12,45,,2018-03-24 15:35:32,2018-03-24 15:35:32
13,13,50,,2018-03-24 15:35:32,2018-03-24 15:35:32
14,14,37,,2018-03-24 15:35:32,2018-03-24 15:35:32
15,15,31,,2018-03-24 15:35:32,2018-03-24 15:35:32
16,16,25,,2018-03-24 15:35:32,2018-03-24 15:35:32
17,17,32,,2018-03-24 15:35:32,2018-03-24 15:35:32
18,18,7,,2018-03-24 15:35:32,2018-03-24 15:35:32
19,19,12,,2018-03-24 15:35:32,2018-03-24 15:35:32
20,20,2,,2018-03-24 15:35:32,2018-03-24 15:35:32
21,21,21,,2018-03-24 15:35:32,2018-03-24 15:35:32
22,22,28,,2018-03-24 15:35:32,2018-03-24 15:35:32
23,23,42,,2018-03-24 15:35:32,2018-03-24 15:35:32
24,24,46,,2018-03-24 15:35:32,2018-03-24 15:35:32
25,25,24,,2018-03-24 15:35:32,2018-03-24 15:35:32