id,employee_type_id,ef_name,el_name,deleted_at,created_at,updated_at
1,1,Terri,G,,2018-03-24 15:35:31,2018-03-24 15:35:31
2,1,Danielle,Cruz,,2018-03-24 15:35:31,2018-03-24 15:35:31
3,2,Smantha,Burret,,2018-03-24 15:35:31,2018-03-24 15:35:31
4,3,John,Lee,,2018-03-24 15:35:31,2018-03-24 15:35:31
5,2,Leslie,Reed,,2018-03-24 15:35:31,2018-03-24 15:35:31